…
    ## Parsed with column specification:
    ## cols(
    ##   .default = col_double(),
    ##   Site = col_character(),
    ##   Protection = col_character()
    ## )

    ## See spec(...) for full column specifications.

Preview the tibble

    ## # A tibble: 476 x 29
    ##     Year Month Air_temp Wind_speed Site  Protection Cloud_cover Humidity
    ##    <dbl> <dbl>    <dbl>      <dbl> <chr> <chr>            <dbl>    <dbl>
    ##  1  2002     8     62.1        6.7 KZN3~ FP                  55     79.3
    ##  2  2003     4     63.3        6.3 KZN7~ FP                 100     81.8
    ##  3  2002    10     75.2       24.6 KZN4~ FP                 100     80.4
    ##  4  2002    10     88.3        0.2 KZN4~ FP                   0     43.8
    ##  5  2002    12     69.1        0.6 KZN5~ NP                  10     75.1
    ##  6  2002    10     76.1        0   KZN4~ FP                 100     69.8
    ##  7  2002    10     83.3       14.8 KZN4~ FP                  30     63.5
    ##  8  2002     8     70.5       16.1 KZN3~ FP                   5     59.8
    ##  9  2002     8     54.1        4.1 KZN3~ FP                  10     62.8
    ## 10  2002    12     32          0   KZN5~ PP                   0      0  
    ## # ... with 466 more rows, and 21 more variables: abundance <dbl>,
    ## #   richness <dbl>, Latitude <dbl>, Longitude <dbl>, SL_Reeds <dbl>,
    ## #   SL_Grass <dbl>, SL_Shrubs <dbl>, SL_Open <dbl>, AQ_Reeds <dbl>,
    ## #   AQ_FloodGrass <dbl>, AQ_Emerge <dbl>, AQ_Open <dbl>,
    ## #   SL_open_total <dbl>, shore_veg_total <dbl>, AQ_open_total <dbl>,
    ## #   aquatic_veg_total <dbl>, pH <dbl>, DO <dbl>, Temp <dbl>, TDS <dbl>,
    ## #   Sal <dbl>
…
